{
  "schema": {
    "options": {
      "properties": {
        "options.date": {
          "type": "date",
          "title": "Date description frozen"
        }
      },
      "type": "object",
      "title": "Common configuration"
    }
  },
  "model": {
    "options.date": {
      "readOnly": true
    }
  },
  "global": {
    "owner": "user",
    "properties": [
      "cache",
      "demoting_error_warning",
      "disabled",
      "force_store_value",
      "frozen",
      "hidden",
      "validator",
      "warnings"
    ],
    "permissives": [
      "hidden"
    ]
  },
  "form": {
    "options.date": {
      "clearable": true,
      "remote": true
    },
    "null": [
      {
        "title": "Configurer",
        "type": "submit"
      }
    ]
  },
  "version": "1.0"
}